{
  "_embedded": {
      "meshChargebacks": [
          {
              "apiVersion": "v1",
              "kind": "meshChargeback",
              "metadata": {
                  "name": "2022-06-06Z/demo-partner:unipipe-video:unipipe-service-broker-dev",
                  "createdOn": "2022-06-28T08:39:46.950195Z"
              },
              "spec": {
                  "customerIdentifier": "unipipe-video",
                  "projectIdentifier": "unipipe-service-broker-dev",
                  "partnerIdentifier": "demo-partner",
                  "period": "2022-06-06Z",
                  "tags": {}
              },
              "status": {
                  "timeframe": {
                      "from": "2022-06-06T00:00:00Z",
                      "to": "2022-07-06T00:00:00Z"
                  },
                  "lineItems": [
                      {
                          "reportCategory": "BILLING",
                          "platformTenantId": "f7d81ca9-2a8e-4e11-b4b6-d9128223c4d1",
                          "platformFullIdentifier": "azure.meshcloud-azure-dev",
                          "reportId": "TenantUsageReports/azure.meshcloud-azure-dev:f7d81ca9-2a8e-4e11-b4b6-d9128223c4d1:2021-05-01Z",
                          "period": "2021-05-01Z",
                          "entryDate": "2022-04-29T07:05:18.253288Z",
                          "netAmount": 35.07,
                          "currency": "EUR",
                          "sellerId": "meshcloud"
                      }
                  ],
                  "netAmounts": [
                      {
                          "currency": "EUR",
                          "amount": 35.07
                      }
                  ]
              },
              "_links": {
                  "self": {
                      "href": "http://localhost:8000/api/meshobjects/meshchargebacks/2022-06-06Z/demo-partner:unipipe-video:unipipe-service-broker-dev"
                  }
              }
          }
      ]
  },
  "_links": {
      "first": {
          "href": "http://localhost:8000/api/meshobjects/meshchargebacks?page=0&size=1"
      },
      "self": {
          "href": "http://localhost:8000/api/meshobjects/meshchargebacks?page=0&size=1"
      },
      "prev": {
          "href": "http://localhost:8000/api/meshobjects/meshchargebacks?page=0&size=1"
      }
  },
  "page": {
      "size": 1,
      "totalElements": 2,
      "totalPages": 2,
      "number": 1
  }
}